Project#02 - Build Dataset
…
## compare a random plot before and after replacement
plotsel <- sample(unique(congo.new$PlotObservationID), 1)
DT2.oa %>% filter(PlotObservationID==plotsel) %>% print(n=15)

## # A tibble: 19 x 7
##    PlotObservation Species Original_species Taxon_group Original_abunda
##               <dbl> <chr>   <chr>            <chr>                  <dbl>
##  1            33770 Anonid Anonidium mannii Vascular p            0.64 
##  2            33770 Cola g Cola griseiflora Vascular p            2.4  
##  3            33770 Diospy Diospyros crass Vascular p            0.22 
##  4            33770 Drypet Drypetes angust Vascular p            0.27 
##  5            33770 Drypet Drypetes gosswe Vascular p            4.12 
##  6            33770 Drypet Drypetes leonen Vascular p            0.290
##  7            33770 Garcin Garcinia puncta Vascular p            1.38 
##  8            33770 Guarea Guarea thompson Vascular p            0.13 
##  9            33770 Microd Microdesmis yaf Vascular p            0.66 
## 10            33770 Monodo Monodora myrist Vascular p            0.5  
## 11            33770 Peters Petersianthus m Vascular p            6.87 
## 12            33770 Greenw Polyalthia suav Vascular p            4.13 
## 13            33770 Scorod Scorodophloeus  Vascular p           10.8  
## 14            33770 Staudt Staudtia kameru Vascular p            0.64 
## 15            33770 Stromb Strombosia pust Vascular p            0.43 
## #  with 4 more rows, and 2 more variables: Abundance_scale <chr>,
## #   Relative_cover <dbl>

congo.out %>% filter(PlotObservationID==plotsel) %>% print(n=15)

## # A tibble: 22 x 7
##    PlotObservation Species Original_species Taxon_group Original_abunda
##               <dbl> <chr>   <chr>            <chr>                  <dbl>
##  1            33770 Anonid Anonidium mannii Vascular p            0.642
##  2            33770 Cola g Cola griseiflora Vascular p            1.12 
##  3            33770 Diospy Diospyros crass Vascular p            0.216
##  4            33770 Drypet Drypetes gosswe Vascular p            4.12 
##  5            33770 Drypet Drypetes         Vascular p            0.268
##  6            33770 Garcin Garcinia puncta Vascular p            1.38 
##  7            33770 Greenw Greenwayodendro Vascular p            4.13 
##  8            33770 Irving Irvingia gabone Vascular p            0.586
##  9            33770 Leplaea Leplaea          Vascular p            0.133
## 10            33770 Microd Microdesmis yaf Vascular p            0.657
## 11            33770 Monodo Monodora myrist Vascular p            0.498
## 12            33770 Pancov Pancovia harmsi Vascular p            2.26 
## 13            33770 Pancov Pancovia lauren Vascular p            0.376
## 14            33770 Pentac Pentaclethra ma Vascular p            1.43 
## 15            33770 Peters Petersianthus m Vascular p            6.88 
## #  with 7 more rows, and 2 more variables: Abundance_scale <chr>,
## #   Relative_cover <dbl>
…
## compare a random plot before and after replacement
plotsel <- sample(unique(angola.out$PlotObservationID), 1)
DT2.oa %>% filter(PlotObservationID==plotsel) %>% print(n=25)

## # A tibble: 26 x 7
##    PlotObservation Species Original_species Taxon_group Original_abunda
##               <dbl> <chr>   <chr>            <chr>                  <dbl>
##  1             1865 Acroto Acrotome inflata Vascular p             0.01
##  2             1865 Apocyn Apocynaceae ggs Vascular p             0.1 
##  3             1865 Aristi Aristida stipit Vascular p            18   
##  4             1865 Burkea Burkea africana  Vascular p            20   
##  5             1865 Chamae Chamaecrista kl Vascular p             0.1 
##  6             1865 Chamae Chamaecrista ab Vascular p             0.1 
##  7             1865 Combre Combretum psidi Vascular p             1   
##  8             1865 Combre Combretum zeyhe Vascular p             1   
##  9             1865 Diospy Diospyros chama Vascular p             7   
## 10             1865 Eragro Eragrostis lehm Vascular p            17   
## 11             1865 Evolvu Evolvulus alsin Vascular p             0.01
## 12             1865 Herman Hermannia eenii  Vascular p             0.01
## 13             1865 Hibisc Hibiscus gelb    Vascular p             0.1 
## 14             1865 Indigo Indigofera flav Vascular p             0.01
## 15             1865 Ipomoea Ipomoea gelb ge Vascular p             3   
## 16             1865 Ipomoe Ipomoea chloron Vascular p             0.1 
## 17             1865 Lannea Lannea gossweil Vascular p             0.1 
## 18             1865 Merrem Merremia pinnata Vascular p             0.1 
## 19             1865 Ochna  Ochna pulchra    Vascular p             4   
## 20             1865 Peroti Perotis patens   Vascular p             0.1 
## 21             1865 Polydo Vernonia poskea Vascular p             0.01
## 22             1865 Sperma Spermacoce subv Vascular p             0.1 
## 23             1865 Stipag Stipagrostis cf Vascular p             2   
## 24             1865 Tephro Tephrosia lupin Vascular p             0.5 
## 25             1865 Tephro Tephrosia purpu Vascular p             0.5 
## #  with 1 more row, and 2 more variables: Abundance_scale <chr>,
## #   Relative_cover <dbl>

angola.out %>% filter(PlotObservationID==plotsel) %>% print(n=25)

## # A tibble: 26 x 7
##    PlotObservation Species Original_species Taxon_group Original_abunda
##               <dbl> <chr>   <chr>            <chr>                  <dbl>
##  1             1865 Acroto Acrotome inflata Vascular p             0.01
##  2             1865 Aeschy Aeschynomene br Vascular p             0.1 
##  3             1865 Apocyn Apocynaceae ggs Vascular p             0.1 
##  4             1865 Aristi Aristida stipit Vascular p            18   
##  5             1865 Burkea Burkea africana  Vascular p            20   
##  6             1865 Chamae Chamaecrista ab Vascular p             0.1 
##  7             1865 Combre Combretum psidi Vascular p             1   
##  8             1865 Combre Combretum zeyhe Vascular p             1   
##  9             1865 Diospy Diospyros chama Vascular p             7   
## 10             1865 Eragro Eragrostis cyli Vascular p            17   
## 11             1865 Evolvu Evolvulus alsin Vascular p             0.01
## 12             1865 Herman Hermannia eenii  Vascular p             0.01
## 13             1865 Hibisc Hibiscus gelb    Vascular p             0.1 
## 14             1865 Indigo Indigofera flav Vascular p             0.01
## 15             1865 Ipomoe Ipomoea chloron Vascular p             0.1 
## 16             1865 Ipomoe Ipomoea hackeli Vascular p             3   
## 17             1865 Lannea Lannea gossweil Vascular p             0.1 
## 18             1865 Merrem Merremia pinnata Vascular p             0.1 
## 19             1865 Ochna  Ochna pulchra    Vascular p             4   
## 20             1865 Peroti Perotis patens   Vascular p             0.1 
## 21             1865 Polydo Polydora poskea Vascular p             0.01
## 22             1865 Sperma Spermacoce subv Vascular p             0.1 
## 23             1865 Stipag Stipagrostis cf Vascular p             2   
## 24             1865 Tephro Tephrosia lupin Vascular p             0.5 
## 25             1865 Tephro Tephrosia purpu Vascular p             0.5 
## #  with 1 more row, and 2 more variables: Abundance_scale <chr>,
## #   Relative_cover <dbl>
…
